placa,marca,modelo,fecha_compra,capacidad_carga
991-IPL,Ferrari,2011,02/12/2019,6.3
992-IPL,Ferrari,2011,02/12/2019,6.4
993-IPL,Ferrari,2011,02/12/2019,6.5
994-IPL,Ferrari,2011,02/12/2019,6.6
995-IPL,Ferrari,2011,02/12/2019,6.7
996-IPL,Ferrari,2011,02/12/2019,6.8
997-IPL,Ferrari,2011,02/12/2019,6.9
998-IPL,Ferrari,2011,02/12/2019,6.10
